…
## Clean the data in pols-month.csv

``` r
pols_df = 
  read_csv(file = "./data/pols-month.csv") %>% 
  janitor::clean_names() %>% 
  separate(mon, into = c("year", "month", "day")) %>% 
  mutate(month = month.abb[as.numeric(month)]) %>% 
  mutate(president = ifelse(prez_dem == 0, "dem", "gop")) %>% 
  select(-prez_dem, -prez_gop, -day)
pols_df
```

    ## # A tibble: 822 × 9
    ##    year  month gov_gop sen_gop rep_gop gov_dem sen_dem rep_dem president
    ##    <chr> <chr>   <dbl>   <dbl>   <dbl>   <dbl>   <dbl>   <dbl> <chr>    
    ##  1 1947  Jan        23      51     253      23      45     198 gop      
    ##  2 1947  Feb        23      51     253      23      45     198 gop      
    ##  3 1947  Mar        23      51     253      23      45     198 gop      
    ##  4 1947  Apr        23      51     253      23      45     198 gop      
    ##  5 1947  May        23      51     253      23      45     198 gop      
    ##  6 1947  Jun        23      51     253      23      45     198 gop      
    ##  7 1947  Jul        23      51     253      23      45     198 gop      
    ##  8 1947  Aug        23      51     253      23      45     198 gop      
    ##  9 1947  Sep        23      51     253      23      45     198 gop      
    ## 10 1947  Oct        23      51     253      23      45     198 gop      
    ## # ℹ 812 more rows
